digraph G {
	graph [bb="0,0,704,1088"];
	node [label="\N"];
	26	 [height=0.8171,
		label="main()\nexecution time 9.0",
		pos="309,1058",
		root=26,
		width=2.3433];
	33	 [height=1.4771,
		label="omp parallel for@33\nfor( i = 0; i < 1; i += 1)\nexecution time: 1.0\nvariance: 0.0",
		pos="309,939",
		root=26,
		width=2.8425];
	26 -> 33	 [pos="e,309,992.53 309,1028.4 309,1020.5 309,1011.7 309,1002.7"];
	38	 [height=1.1471,
		label="omp parallel@38\nexecution time: 7.0\nvariance: 0.0",
		pos="309,808",
		root=26,
		width=2.4231];
	33 -> 38	 [pos="e,309,849.55 309,885.53 309,877 309,868.18 309,859.69"];
	41	 [height=1.1471,
		label="omp task@41\nexecution time: 1.0\nvariance: 0.0",
		pos="87,448",
		root=26,
		width=2.4231];
	38 -> 41	 [color=chartreuse2,
		pos="e,74.704,488.99 250.78,776.99 194.66,744.42 113.24,686.62 78,610 62.045,575.31 65.646,531.88 72.493,498.88"];
	47	 [height=1.1471,
		label="omp task@47\nexecution time: 1.0\nvariance: 0.0",
		pos="174,568",
		root=26,
		width=2.4231];
	38 -> 47	 [color=chartreuse2,
		pos="e,196.15,608.06 286.86,767.97 263.41,726.63 226.38,661.35 201.18,616.93"];
	53	 [height=1.1471,
		label="omp task@53\nexecution time: 4.0\nvariance: 0.0",
		pos="367,688",
		root=26,
		width=2.4231];
	38 -> 53	 [color=chartreuse2,
		pos="e,347.57,728.52 328.31,767.71 333.06,758.06 338.19,747.61 343.12,737.58"];
	70	 [height=1.1471,
		label="omp task@70\nexecution time: 1.0\nvariance: 0.0",
		pos="617,688",
		root=26,
		width=2.4231];
	38 -> 70	 [color=chartreuse2,
		pos="e,550.03,714.66 375.83,781.4 424.28,762.83 489.9,737.7 540.45,718.33"];
	"38_end"	 [height=0.5,
		label=BARRIER,
		pos="312,352",
		root=26,
		width=1.4568];
	41 -> "38_end"	 [color=chartreuse2,
		pos="e,279.98,366.38 151.48,420.06 189.77,404.07 237.2,384.25 270.54,370.32"];
	77	 [height=1.1471,
		label="omp parallel@77\nexecution time: 1.0\nvariance: 0.0",
		pos="312,256",
		root=26,
		width=2.4231];
	"38_end" -> 77	 [pos="e,312,297.55 312,333.76 312,326.29 312,317.11 312,307.73"];
	47 -> "38_end"	 [color=chartreuse2,
		pos="e,301.14,369.85 198.99,528.25 226.99,484.83 271.58,415.69 295.52,378.56"];
	55	 [height=1.1471,
		label="omp task@55\nexecution time: 1.0\nvariance: 0.0",
		pos="367,568",
		root=26,
		width=2.4231];
	53 -> 55	 [color=darkkhaki,
		pos="e,367,609.68 367,646.39 367,637.86 367,628.76 367,619.91"];
	60	 [height=1.1471,
		label="omp task@60\nexecution time: 2.0\nvariance: 0.0",
		pos="560,568",
		root=26,
		width=2.4231];
	53 -> 60	 [color=darkkhaki,
		pos="e,507.53,601.08 419.48,654.91 443.95,639.95 473.21,622.06 498.69,606.49"];
	"53_end"	 [height=0.5,
		label=BARRIER,
		pos="367,448",
		root=26,
		width=1.4568];
	55 -> "53_end"	 [color=darkkhaki,
		pos="e,367,466.29 367,526.39 367,509.87 367,491.21 367,476.35"];
	"53_end" -> "38_end"	 [color=chartreuse2,
		pos="e,321.93,369.98 357.17,430.19 348.85,415.98 336.79,395.38 327.23,379.03"];
	60 -> "53_end"	 [color=darkkhaki,
		pos="e,391.58,464.03 507.52,534.91 473.33,514.01 429.75,487.37 400.26,469.33"];
	70 -> "38_end"	 [color=chartreuse2,
		pos="e,358.48,360.42 641.9,648.08 660.37,613.82 678.74,563.67 656,526 593.79,422.96 448.93,379.28 368.44,362.44"];
	79	 [height=1.4771,
		label="omp for@79\nfor( i = 99; i < n; i += 1)\nexecution time: 1.0\nvariance: 0.0",
		pos="312,125",
		root=26,
		width=2.9806];
	77 -> 79	 [color=cyan1,
		pos="e,312,178.64 312,214.54 312,206.36 312,197.58 312,188.84"];
	"77_end"	 [height=0.5,
		label=BARRIER,
		pos="312,18",
		root=26,
		width=1.4568];
	79 -> "77_end"	 [color=cyan1,
		pos="e,312,36.46 312,71.808 312,63.132 312,54.445 312,46.694"];
}
